lab-01_data_science_tools
…
model_data <- lees_flow |>
  left_join(glenwood_flow, by = "water_year") |>
  left_join(dominant_season, by = "water_year") |>
  mutate(
    log_lees = log(lees_flow),
    log_glenwood = log(glenwood_flow)
  )

model_data

# A tibble: 45 × 6
   water_year lees_flow glenwood_flow season   log_lees log_glenwood
        <dbl>     <dbl>         <dbl> <fct>       <dbl>        <dbl>
 1       1980   4462080        432890 Monsoon      15.3         13.0
 2       1981   4182140        271835 Low-flow     15.2         12.5
 3       1982   4186800        469712 Monsoon      15.2         13.1
 4       1983   8819610        603893 Monsoon      16.0         13.3
 5       1984  10335100        765741 Snowmelt     16.2         13.5
 6       1985   9626610        644976 Snowmelt     16.1         13.4
 7       1986   8494120        624342 Snowmelt     16.0         13.3
 8       1987   6770250        460126 Low-flow     15.7         13.0
 9       1988   4105740        314527 Winter       15.2         12.7
10       1989   4023510        303507 Monsoon      15.2         12.6
# ℹ 35 more rows
…
The model explains a large portion of the variance in Lees Ferry flow (R² = 0.86) and is highly statistically significant overall (p < 0.001), indicating a strong relationship between upstream flow and downstream discharge. The coefficient on log_glenwood (1.80) is > 1, meaning the relationship is elastic. A 1% increase in upstream flow corresponds to roughly a 1.8% increase at Lees Ferry, reflecting amplification as additional tributaries contribute flow downstream.

The significant negative interaction terms show that this upstream–downstream relationship weakens outside of the Snowmelt season. In Monsoon, Low-flow, and Winter periods, increases in upstream flow translate less efficiently to Lees Ferry, likely due to reduced basin connectivity, higher losses, or more localized hydrologic processes.

Question 10: Model Evaluation A model that fits well on average can still fail in predictable ways. Two core assumptions of linear regression are: predictions should be unbiased across the full range of fitted values, and residuals should be approximately normally distributed. Let’s check both — and look for the outlier year that the model cannot predict.

Use broom::augment() to produce a tidy data frame of predictions and residuals alongside the original data: aug <- augment(mod, data = lees_model_data)

Introducing broom broom converts messy R model objects into tidy, pipeable data frames:

aug_mod <- augment(mod)
aug_mod

# A tibble: 45 × 9
   log_lees log_glenwood season .fitted  .resid   .hat .sigma .cooksd .std.resid
      <dbl>        <dbl> <fct>    <dbl>   <dbl>  <dbl>  <dbl>   <dbl>      <dbl>
 1     15.3         13.0 Monso…    15.3 -0.0317 0.0400  0.155 2.31e-4     -0.211
 2     15.2         12.5 Low-f…    15.2  0.0620 0.125   0.155 3.33e-3      0.432
 3     15.2         13.1 Monso…    15.4 -0.116  0.0489  0.154 3.85e-3     -0.774
 4     16.0         13.3 Monso…    15.4  0.566  0.107   0.119 2.28e-1      3.90 
 5     16.2         13.5 Snowm…    16.2 -0.0890 0.562   0.154 1.23e-1     -0.876
 6     16.1         13.4 Snowm…    15.9  0.148  0.201   0.153 3.68e-2      1.08 
 7     16.0         13.3 Snowm…    15.9  0.0817 0.177   0.155 9.25e-3      0.587
 8     15.7         13.0 Low-f…    15.7  0.0761 0.193   0.155 9.13e-3      0.552
 9     15.2         12.7 Winter    15.2 -0.0146 0.392   0.156 1.20e-3     -0.122
10     15.2         12.6 Monso…    15.3 -0.0458 0.0581  0.155 7.28e-4     -0.307
# ℹ 35 more rows
…
